{
    "border": "pixel",
    "current_border_width": 8,
    "floating": "auto_off",
    "geometry": {
       "height": 2115,
       "width": 3824,
       "x": 16,
       "y": 45
    },
    "name": "josh@bkmediagroup.com",
    "percent": 0.5,
    "swallows": [
       {
        "class": "^Chromium$"
       }
    ],
    "type": "con"
}

{
    "border": "pixel",
    "floating": "auto_off",
    "layout": "splitv",
    "percent": 0.5,
    "type": "con",
    "nodes": [
        {
            "border": "pixel",
            "current_border_width": 8,
            "floating": "auto_off",
            "geometry": {
               "height": 2115,
               "width": 3824,
               "x": 0,
               "y": 0
            },
            "name": "oushinhogin@gmail.com",
            "percent": 0.5,
            "swallows": [
               {
                "class": "^Chromium$"
               }
            ],
            "type": "con"
        },
        {
            "border": "pixel",
            "current_border_width": 8,
            "floating": "auto_off",
            "geometry": {
               "height": 2115,
               "width": 3824,
               "x": 16,
               "y": 45
            },
            "name": "josh@horner.im",
            "percent": 0.5,
            "swallows": [
               {
                "class": "^Chromium$"
               }
            ],
            "type": "con"
        }
    ]
}

