{
    "border": "pixel",
    "current_border_width": 8,
    "floating": "auto_off",
    "geometry": {
       "height": 1050,
       "width": 1904,
       "x": 0,
       "y": 0
    },
    "name": "Workamajig",
    "percent": 0.58,
    "swallows": [
       {
        "class": "^Chromium$"
       }
    ],
    "type": "con"
}
{
    "border": "pixel",
    "current_border_width": 8,
    "floating": "auto_off",
    "geometry": {
       "height": 2115,
       "width": 1904,
       "x": 232,
       "y": 45
    },
    "name": "Calendar",
    "percent": 0.42,
    "swallows": [
       {
        "class": "^Chromium$"
       }
    ],
    "type": "con"
}

